{
	"authHost": "http://localhost",
	"authEndpoint": "/broadcasting/auth",
	"clients": [
		{
			"appId": "2bce3d0baa3a6698",
			"key": "8f1f906719ebf84965dedd5aa099bac6"
		}
	],
	"database": "redis",
	"databaseConfig": {
		"redis": {
          "host": "localhost",
          "port": "6379",
          "password": "EK@admin_2016!"
        },
		"sqlite": {
			"databasePath": "/database/laravel-echo-server.sqlite"
		}
	},
	"devMode": false,
	"host": null,
	"port": "6004",
	"protocol": "http",
	"socketio": {},
	"sslCertPath": "",
	"sslKeyPath": "",
	"sslCertChainPath": "",
	"sslPassphrase": "",
	"subscribers": {
		"http": true,
		"redis": true
	},
	"apiOriginAllow": {
		"allowCors": false,
		"allowOrigin": "",
		"allowMethods": "",
		"allowHeaders": ""
	}
}